{
    "metricsOptions": {
        "prometheusOptions": {
            "enabled": true
        },
        "jmxOptions": {
            "enabled": true
        },
        "enabled": true,
        "registryName": "my-registry"
    }
}